vr_uvc/log_dir/vr_basic_test_1/dump.vcd
$date
    Mar 27, 2024  10:29:19
$end
$version
    TOOL:	xmsim(64)	22.03-s002
$end
$timescale
    1 ns
$end

$scope module top $end
$var reg       1 !    clk $end
$var reg       1 "    reset_n $end
$var parameter 32 #    CLK_CYCLE $end
$var parameter 32 $    delay_reset $end

$scope module vr_vif $end
$var parameter 32 %    DATA $end
$var wire      1 &    clk  $end
$var wire      1 '    reset_n  $end
$var reg       1 (    valid $end
$var reg       1 )    ready $end
$var reg      32 *    data [31:0] $end

$scope task wait_n_clocks $end
$var integer  32 +    N $end
$upscope $end


$scope clocking m_ckb $end
$var reg       1 ,    ready $end
$var reg       1 -    valid $end
$var reg      32 .    data [31:0] $end
$upscope $end


$scope clocking s_ckb $end
$var reg       1 /    ready $end
$var reg       1 0    valid $end
$var reg      32 1    data [31:0] $end
$upscope $end


$scope clocking mon_ckb $end
$var reg       1 2    valid $end
$var reg      32 3    data [31:0] $end
$var reg       1 4    ready $end
$upscope $end

$upscope $end

$upscope $end


$scope module vr_pkg $end
$var integer  32 5    MAX_SLAVE_DELAY $end
$upscope $end


$scope module cdns_uvm_pkg $end
$var parameter 32 6    UVM_SET_VERBOSITY $end
$var parameter 32 7    UVM_GET_VERBOSITY $end
$var parameter 32 8    UVM_SET_ACTIONS $end
$var parameter 32 9    UVM_GET_ACTIONS $end
$var parameter 32 :    UVM_SET_STYLE $end
$var parameter 32 ;    UVM_GET_STYLE $end
$var parameter 32 <    UVM_SET_SEVERITY $end
$var parameter 32 =    UVM_GET_SEVERITY $end
$var event     1 >    uvm_build_complete $end
$var reg       1 ?    uvm_phase_is_start $end
$var reg       1 @    uvm_ml_mode $end
$var event     1 A    cdns_uvm_data_valid $end

$scope function uvm_cdns_report_server_setup $end
$var reg       1 B    uvm_cdns_report_server_setup $end
$var reg       1 C    enable $end
$upscope $end


$scope function cdns_tcl_uvm_message_hyperlinks $end
$var integer  32 D    status $end
$upscope $end

$upscope $end


$scope module cdns_assert2uvm_pkg $end
$var integer  32 E    verbosity $end
$upscope $end


$scope module uvm_pkg $end
$var parameter 32 F    UVM_HDL_MAX_WIDTH $end
$var parameter 328 G    uvm_mgc_copyright $end
$var parameter 336 H    uvm_cdn_copyright $end
$var parameter 224 I    uvm_snps_copyright $end
$var parameter 328 J    uvm_cy_copyright $end
$var parameter 256 K    uvm_nv_copyright $end
$var parameter 200 L    uvm_revision $end
$var reg       1 M    uvm_start_uvm_declarations $end
$var parameter 32 N    UVM_STREAMBITS $end
$var parameter 32 O    UVM_RADIX $end
$var parameter 32 P    UVM_MACRO_NUMFLAGS $end
$var parameter 32 Q    UVM_DEFAULT $end
$var parameter 32 R    UVM_ALL_ON $end
$var parameter 32 S    UVM_FLAGS_ON $end
$var parameter 32 T    UVM_FLAGS_OFF $end
$var parameter 32 U    UVM_COPY $end
$var parameter 32 V    UVM_NOCOPY $end
$var parameter 32 W    UVM_COMPARE $end
$var parameter 32 X    UVM_NOCOMPARE $end
$var parameter 32 Y    UVM_PRINT $end
$var parameter 32 Z    UVM_NOPRINT $end
$var parameter 32 [    UVM_RECORD $end
$var parameter 32 \    UVM_NORECORD $end
$var parameter 32 ]    UVM_PACK $end
$var parameter 32 ^    UVM_NOPACK $end
$var parameter 32 _    UVM_PHYSICAL $end
$var parameter 32 `    UVM_ABSTRACT $end
$var parameter 32 a    UVM_READONLY $end
$var parameter 32 b    UVM_NODEFPRINT $end
$var parameter 32 c    UVM_MACRO_EXTRAS $end
$var parameter 32 d    UVM_FLAGS $end
$var parameter 32 e    UVM_UNPACK $end
$var parameter 32 f    UVM_CHECK_FIELDS $end
$var parameter 32 g    UVM_END_DATA_EXTRA $end
$var parameter 32 h    UVM_START_FUNCS $end
$var parameter 32 i    UVM_SET $end
$var parameter 32 j    UVM_SETINT $end
$var parameter 32 k    UVM_SETOBJ $end
$var parameter 32 l    UVM_SETSTR $end
$var parameter 32 m    UVM_END_FUNCS $end
$var integer  32 n    uvm_global_random_seed $end
$var parameter 32 o    UVM_STR_CRC_POLYNOMIAL $end
$var parameter 32 p    UVM_STDOUT $end
$var parameter 32 q    UVM_LINE_WIDTH $end
$var parameter 32 r    UVM_NUM_LINES $end
$var parameter 32 s    UVM_SMALL_STRING $end
$var parameter 32 t    UVM_LARGE_STRING $end
$var integer  32 u    UVM_UNBOUNDED_CONNECTIONS $end

$scope function uvm_hdl_check_path $end
$var integer  32 v    uvm_hdl_check_path $end
$upscope $end


$scope function uvm_hdl_deposit $end
$var integer  32 w    uvm_hdl_deposit $end
$var reg      1024 x    value [1023:0] $end
$upscope $end


$scope function uvm_hdl_force $end
$var integer  32 y    uvm_hdl_force $end
$var reg      1024 z    value [1023:0] $end
$upscope $end


$scope task uvm_hdl_force_time $end
$var reg      1024 {    value [1023:0] $end
$var time     64 |    force_time $end
$upscope $end


$scope function uvm_hdl_release_and_read $end
$var integer  32 }    uvm_hdl_release_and_read $end
$var reg      1024 ~    value [1023:0] $end
$upscope $end


$scope function uvm_hdl_release $end
$var integer  32 !!   uvm_hdl_release $end
$upscope $end


$scope function uvm_hdl_read $end
$var integer  32 "!   uvm_hdl_read $end
$var reg      1024 #!   value [1023:0] $end
$upscope $end


$scope function uvm_dpi_get_next_arg_c $end
$var integer  32 $!   init $end
$upscope $end


$scope function uvm_dpi_get_next_arg $end
$var integer  32 %!   init $end
$upscope $end


$scope function uvm_dpi_regexec $end
$var integer  32 &!   uvm_dpi_regexec $end
$upscope $end


$scope function uvm_re_match $end
$var integer  32 '!   uvm_re_match $end
$upscope $end


$scope function uvm_regcomp $end
$var reg      64 (!   uvm_regcomp [63:0] $end
$upscope $end


$scope function uvm_regexec $end
$var integer  32 )!   uvm_regexec $end
$var reg      64 *!   re [63:0] $end
$var integer  32 +!   nmatch $end
$var reg      64 ,!   ptr [63:0] $end
$var integer  32 -!   eflags $end
$upscope $end


$scope task uvm_regfree $end
$var reg      64 .!   re [63:0] $end
$upscope $end


$scope function uvm_radix_to_string $end
$var reg      32 /!   radix [31:0] $end
$upscope $end


$scope function uvm_instance_scope $end
$var reg       8 0!   c [7:0] $end
$var integer  32 1!   pos $end
$upscope $end


$scope function uvm_oneway_hash $end
$var integer  32 2!   uvm_oneway_hash $end
$var integer  32 3!   seed $end
$var reg       1 4!   msb $end
$var reg       8 5!   current_byte [7:0] $end
$var reg      32 6!   crc1 [31:0] $end
$upscope $end


$scope function uvm_create_random_seed $end
$var integer  32 7!   uvm_create_random_seed $end
$upscope $end


$scope function uvm_leaf_scope $end
$var reg       8 8!   scope_separator [7:0] $end
$var reg       8 9!   bracket_match [7:0] $end
$var integer  32 :!   pos $end
$var integer  32 ;!   bmatches $end
$upscope $end


$scope function uvm_bitstream_to_string $end
$var reg      4096 <!   value [4095:0] $end
$var integer  32 =!   size $end
$var reg      32 >!   radix [31:0] $end

$scope begin unmblk1 $end
$var reg      4096 ?!   _t [4095:0] $end
$upscope $end

$upscope $end


$scope function uvm_integral_to_string $end
$var reg      64 @!   value [63:0] $end
$var integer  32 A!   size $end
$var reg      32 B!   radix [31:0] $end

$scope begin unmblk1 $end
$var reg      64 C!   _t [63:0] $end
$upscope $end

$upscope $end


$scope function uvm_vector_to_string $end
$var reg      4096 D!   value [4095:0] $end
$var integer  32 E!   size $end
$var reg      32 F!   radix [31:0] $end
$upscope $end


$scope function uvm_get_array_index_int $end
$var integer  32 G!   uvm_get_array_index_int $end
$var reg       1 H!   is_wildcard $end
$var integer  32 I!   i $end
$upscope $end


$scope function uvm_get_array_index_string $end
$var reg       1 J!   is_wildcard $end
$var integer  32 K!   i $end
$upscope $end


$scope function uvm_is_array $end
$var reg       1 L!   uvm_is_array $end
$upscope $end


$scope task set_global_timeout $end
$var time     64 M!   timeout $end
$var reg       1 N!   overridable $end
$upscope $end


$scope task set_global_stop_timeout $end
$var time     64 O!   timeout $end
$upscope $end


$scope function uvm_report_enabled $end
$var integer  32 P!   uvm_report_enabled $end
$var integer  32 Q!   verbosity $end
$var reg       2 R!   severity [1:0] $end
$upscope $end


$scope task uvm_report $end
$var reg       2 S!   severity [1:0] $end
$var integer  32 T!   verbosity $end
$var integer  32 U!   line $end
$var reg       1 V!   report_enabled_checked $end
$upscope $end


$scope task m__uvm_report_dpi $end
$var integer  32 W!   severity $end
$var integer  32 X!   verbosity $end
$var integer  32 Y!   line $end
$upscope $end


$scope task uvm_report_info $end
$var integer  32 Z!   verbosity $end
$var integer  32 [!   line $end
$var reg       1 \!   report_enabled_checked $end
$upscope $end


$scope task uvm_report_warning $end
$var integer  32 ]!   verbosity $end
$var integer  32 ^!   line $end
$var reg       1 _!   report_enabled_checked $end
$upscope $end


$scope task uvm_report_error $end
$var integer  32 `!   verbosity $end
$var integer  32 a!   line $end
$var reg       1 b!   report_enabled_checked $end
$upscope $end


$scope task uvm_report_fatal $end
$var integer  32 c!   verbosity $end
$var integer  32 d!   line $end
$var reg       1 e!   report_enabled_checked $end
$upscope $end


$scope function uvm_string_to_severity $end
$var reg       1 f!   uvm_string_to_severity $end
$var reg       2 g!   sev [1:0] $end
$upscope $end


$scope task set_config_int $end
$var reg      4096 h!   value [4095:0] $end
$upscope $end


$scope task set_config_object $end
$var reg       1 i!   clone $end
$upscope $end


$scope function uvm_is_match $end
$var reg       1 j!   uvm_is_match $end
$upscope $end


$scope task uvm_wait_for_nba_region $end
$var integer  32 k!   nba $end
$var integer  32 l!   next_nba $end
$upscope $end

$upscope $end

$enddefinitions $end
$dumpvars
b11100000111111111 t
b1110111111 s
b1111000 r
b1111000 q
b1 p
b100110000010001110110110110 o
b100000000000001000 m
b100000000000001000 l
b100000000000000111 k
b100000000000000110 j
b100000000000000110 i
b100000000000000101 h
b100000000000000100 g
b100000000000000011 f
b100000000000000010 e
b100000000000000001 d
b100000000000000000 c
b10000000000000000 b
b1000000000000000 a
b100000000000000 `
b10000000000000 _
b1000000000 ^
b100000000 ]
b10000000 \
b1000000 [
b100000 Z
b10000 Y
b1000 X
b100 W
b10 V
b1 U
b0 T
b101010101 S
b101010101 R
b10101010101 Q
b10001 P
b1111000000000000000000000000 O
b1000000000000 N
b100101000000000000000000000000000001000000000000000000000000000000001100000000000000000000000000100100000000000000000000000000000001000000000000000000000000000000001100000000000000000000000000011100 L
b1100000000000000000000000000100100000000000000000000000000000001000000000000000000000000000000001100000000000000000000000000011100000000000000000000000000000001000000000000000000000000000000001100000000000000000000000000011011 K
b1100000000000000000000000000100100000000000000000000000000000001000000000000000000000000000000001100000000000000000000000000011100000000000000000000000000000001000000000000000000000000000000001100000000000000000000000000011011000000000000000000000000000001000000000000000000000000000000001100000000000000000000000000011010 J
b11011000000000000000000000000000001000000000000000000000000000000001100000000000000000000000000011010000000000000000000000000000001000000000000000000000000000000001100000000000000000000000000011001 I
b1100000000000000000000000000011011000000000000000000000000000001000000000000000000000000000000001100000000000000000000000000011010000000000000000000000000000001000000000000000000000000000000001100000000000000000000000000011001000000000000000000000000000001000000000000000000000000000000001100000000000000000000000000011000 H
b1100000000000000000000000000011010000000000000000000000000000001000000000000000000000000000000001100000000000000000000000000011001000000000000000000000000000001000000000000000000000000000000001100000000000000000000000000011000000000000000000000000000000001000000000000000000000000000000001100000000000000000000000000010111 G
b10000000000 F
b111 =
b110 <
b101 ;
b100 :
b11 9
b10 8
b1 7
b0 6
b100000 %
b1101001 $
b10100 #
0!
0"
0&
0'
x(
0)
bx *
b0 +
x,
x-
bx .
x/
x0
bx 1
x2
bx 3
x4
b110010 5
x>
1?
0@
xA
xB
0C
b0 D
b0 E
1M
b101011011100011001010010100011 n
b11111111111111111111111111111111 u
b0 v
b0 w
bx x
b0 y
bx z
bx {
bx |
b0 }
bx ~
b0 !!
b0 "!
bx #!
b0 $!
b0 %!
b0 &!
b0 '!
b0 (!
b0 )!
b0 *!
b0 +!
b0 ,!
b0 -!
b0 .!
b0 /!
b111010 0!
b1000 1!
b10100000110011000111011110100000 2!
b101011011100011001010010100011 3!
04!
b1110001 5!
b10000111011010010110001010 6!
b11000000010011011000101111011010 7!
b101110 8!
b0 9!
b100011 :!
b11111111111111111111111111111111 ;!
bx <!
b0 =!
b0 >!
bx ?!
b1 @!
b100000 A!
b10000000000000000000000000 B!
bx C!
bx D!
b0 E!
b0 F!
b0 G!
0H!
b0 I!
0J!
b0 K!
0L!
bx M!
0N!
bx O!
b0 P!
b111110100 Q!
b0 R!
b0 S!
b0 T!
b0 U!
0V!
b0 W!
b0 X!
b0 Y!
b0 Z!
b0 [!
0\!
b0 ]!
b0 ^!
0_!
b0 `!
b0 a!
0b!
b0 c!
b0 d!
0e!
0f!
b0 g!
bx h!
0i!
0j!
b100011 k!
b100011 l!
$end
#20
1!
1&
0,
0(
0-
b0 *
b0 .
#40
0!
0&
#60
1!
1&
00
b0 1
#80
0!
0&
#100
1!
1&
#105
1"
1'
#120
0!
0&
#140
1!
1&
#160
0!
0&
#180
1!
1&
#200
0!
0&
#220
1!
1&
b100100 l!
b100101 l!
b100101 k!
#240
0!
0&
#260
1!
1&
1(
1-
b111101010010101000110000111010 *
b111101010010101000110000111010 .
#280
0!
0&
#300
1!
1&
10
b111101010010101000110000111010 1
#320
0!
0&
#340
1!
1&
#360
b100110 l!
0!
b10100000110011000111011110100011 7!
b10100000110011000111011110100110 7!
0&
b100110 k!
#380
1!
1&
1)
1/
#400
0!
0&
#420
1!
1&
1,
#440
0!
0&
#460
1!
1&
b100111 l!
b11000010110100010101000110011100 7!
b11000010110100010101000110011111 7!
b100111 k!
0(
0-
b0 *
b0 .
#480
b101000 l!
0!
b10100000110011000111011110101010 7!
b10100000110011000111011110101111 7!
0&
b101000 k!
#500
1!
1&
00
b0 1
1(
1-
b11011100111011110110101000010101 *
b11011100111011110110101000010101 .
#520
0!
0&
#540
1!
1&
b101001 l!
10
b11011100111011110110101000010101 1
b11000010110100010101000110100011 7!
b11000010110100010101000110101000 7!
b101001 k!
0(
0-
b0 *
b0 .
#560
0!
0&
#580
1!
1&
00
b0 1
1(
1-
b10100000101000100110000100000 *
b10100000101000100110000100000 .
#600
b101010 l!
0!
b10100000110011000111011110110101 7!
b10100000110011000111011110111100 7!
0&
b101010 k!
#620
1!
1&
b101011 l!
10
b10100000101000100110000100000 1
b11000010110100010101000110101110 7!
b11000010110100010101000110110101 7!
b101011 k!
0(
0-
b0 *
b0 .
#640
0!
0&
#660
1!
1&
00
b0 1
1(
1-
b1111000110010011110101111010000 *
b1111000110010011110101111010000 .
#680
0!
0&
#700
1!
1&
b101100 l!
10
b1111000110010011110101111010000 1
b101100 k!
0(
0-
b0 *
b0 .
#720
b101101 l!
0!
0&
b101101 k!
#740
1!
1&
00
b0 1
#760
0!
0&
#780
1!
1&
#800
0!
b101110 l!
b101111 l!
0&
b101111 k!
b110000 l!
b110001 l!
b110001 k!
0?
xA
xA
1?
xA
b11000000010011011000101111101011 7!
b110001011110110000000101001101 7!
b11000010010100101010111110010111 7!
b1110010100111010100000011110 7!
b1111100110111000111111100110100 7!
b10111000001000011111011001010011 7!
b11110010010100010010100111100 7!
b11101111011100101100111001110 7!
b11110100111101001101010011010010 7!
b101010100100111000000101111111 7!
b11011011011001100101100000110 7!
b110010110011001111011111101111 7!
b10010010101110110011011000011000 7!
b1111100011110100110101100110010 7!
b11000101100011000100010111011001 7!
b1011011001101100000010110101111 7!
b111010000100100001101000111110 7!
b11011001010101000100011101010110 7!
b10110100011100111000011000010100 7!
b11101010010101000001000001000 7!
b1100001001001100110110101110100 7!
b111111011001011101011100111011 7!
b11100010011100010100001010111001 7!
b11100000100101110000010110000110 7!
b10000000100010100100111011010011 7!
b11110111010110110110101100001011 7!
b111100100110111001100001000010 7!
b1101100010110010000001001010010 7!
b11000111100000110000001011100011 7!
b1101010010000000000100100101010 7!
b1000010111010000010110011101111 7!
b101111011111011010010011011111 7!
b10101100101110001110100101110 7!
b10100110001100100011111101100010 7!
b10110101001011111000010001100000 7!
b11111101110010010001111011111100 7!
b11000111010100100100011111100010 7!
b1111000000101100000101100110110 7!
b11010001000110110100100110111110 7!
b1111010010010111011110000100010 7!
b1010001001001011110111110100011 7!
b11000100100110110110100100100010 7!
b11011101011010110011001110101 7!
b1111110000110101001110001100000 7!
b10111010011010010000100111111000 7!
b10001111110100100010001001011100 7!
b10110010111011010011011111000001 7!
b1011100100011110111011111010 7!
b10100111010000100110011111011001 7!
b11101101010111001010100001111011 7!
b10010111000010100011001000000010 7!
b1101000001010011001100010111010 7!
b1000000110001011100111001111111 7!
b11010010010111100000001001011 7!
b11100010000011111010000001010110 7!
b1001111011101110110000011011001 7!
b11001111101000010000010111101010 7!
b1100000101000101100100110000001 7!
b111000000100100000001011010111 7!
b11100100000100110001101101001110 7!
0?
xA
1?
xA
b11000000010011011000101111111101 7!
b110001011110110000000101011111 7!
b11000010010100101010111110101001 7!
b1110010100111010100000110000 7!
b1111100110111000111111101000110 7!
b10111000001000011111011001100101 7!
b11110010010100010010101001110 7!
b11101111011100101100111100000 7!
b11110100111101001101010011100100 7!
b101010100100111000000110010001 7!
b11011011011001100101100011000 7!
b110010110011001111100000000001 7!
b10010010101110110011011000101010 7!
b1111100011110100110101101000100 7!
b11000101100011000100010111101011 7!
b1011011001101100000010111000001 7!
b111010000100100001101001010000 7!
b11011001010101000100011101101000 7!
b10110100011100111000011000100110 7!
b11101010010101000001000011010 7!
b1100001001001100110110110000110 7!
b111111011001011101011101001101 7!
b11100010011100010100001011001011 7!
b11100000100101110000010110011000 7!
b10000000100010100100111011100101 7!
b11110111010110110110101100011101 7!
b111100100110111001100001010100 7!
b1101100010110010000001001100100 7!
b11000111100000110000001011110101 7!
b1101010010000000000100100111100 7!
b1000010111010000010110100000001 7!
b101111011111011010010011110001 7!
b10101100101110001110101000000 7!
b10100110001100100011111101110100 7!
b10110101001011111000010001110010 7!
b11111101110010010001111100001110 7!
b11000111010100100100011111110100 7!
b1111000000101100000101101001000 7!
b11010001000110110100100111010000 7!
b1111010010010111011110000110100 7!
b1010001001001011110111110110101 7!
b11000100100110110110100100110100 7!
b11011101011010110011010000111 7!
b1111110000110101001110001110010 7!
b10111010011010010000101000001010 7!
b10001111110100100010001001101110 7!
b10110010111011010011011111010011 7!
b1011100100011110111100001100 7!
b10100111010000100110011111101011 7!
b11101101010111001010100010001101 7!
b10010111000010100011001000010100 7!
b1101000001010011001100011001100 7!
b1000000110001011100111010010001 7!
b11010010010111100000001011101 7!
b11100010000011111010000001101000 7!
b1001111011101110110000011101011 7!
b11001111101000010000010111111100 7!
b1100000101000101100100110010011 7!
b111000000100100000001011101001 7!
b11100100000100110001101101100000 7!
0?
xA
1?
xA
b11000000010011011000110000010000 7!
b110001011110110000000101110010 7!
b11000010010100101010111110111100 7!
b1110010100111010100001000011 7!
b1111100110111000111111101011001 7!
b10111000001000011111011001111000 7!
b11110010010100010010101100001 7!
b11101111011100101100111110011 7!
b11110100111101001101010011110111 7!
b101010100100111000000110100100 7!
b11011011011001100101100101011 7!
b110010110011001111100000010100 7!
b10010010101110110011011000111101 7!
b1111100011110100110101101010111 7!
b11000101100011000100010111111110 7!
b1011011001101100000010111010100 7!
b111010000100100001101001100011 7!
b11011001010101000100011101111011 7!
b10110100011100111000011000111001 7!
b11101010010101000001000101101 7!
b1100001001001100110110110011001 7!
b111111011001011101011101100000 7!
b11100010011100010100001011011110 7!
b11100000100101110000010110101011 7!
b10000000100010100100111011111000 7!
b11110111010110110110101100110000 7!
b111100100110111001100001100111 7!
b1101100010110010000001001110111 7!
b11000111100000110000001100001000 7!
b1101010010000000000100101001111 7!
b1000010111010000010110100010100 7!
b101111011111011010010100000100 7!
b10101100101110001110101010011 7!
b10100110001100100011111110000111 7!
b10110101001011111000010010000101 7!
b11111101110010010001111100100001 7!
b11000111010100100100100000000111 7!
b1111000000101100000101101011011 7!
b11010001000110110100100111100011 7!
b1111010010010111011110001000111 7!
b1010001001001011110111111001000 7!
b11000100100110110110100101000111 7!
b11011101011010110011010011010 7!
b1111110000110101001110010000101 7!
b10111010011010010000101000011101 7!
b10001111110100100010001010000001 7!
b10110010111011010011011111100110 7!
b1011100100011110111100011111 7!
b10100111010000100110011111111110 7!
b11101101010111001010100010100000 7!
b10010111000010100011001000100111 7!
b1101000001010011001100011011111 7!
b1000000110001011100111010100100 7!
b11010010010111100000001110000 7!
b11100010000011111010000001111011 7!
b1001111011101110110000011111110 7!
b11001111101000010000011000001111 7!
b1100000101000101100100110100110 7!
b111000000100100000001011111100 7!
b11100100000100110001101101110011 7!
0?
xA
1?
xA
b11100100000100110001101110000111 7!
b111000000100100000001100010000 7!
b1100000101000101100100110111010 7!
b11101010010101000001001000001 7!
b11000010010100101010111111010000 7!
b11000000010011011000110000100100 7!
b110001011110110000000110000110 7!
b1111100110111000111111101101101 7!
b1110010100111010100001010111 7!
b10110100011100111000011001001101 7!
b101010100100111000000110111000 7!
b10111000001000011111011010001100 7!
b11110010010100010010101110101 7!
b11101111011100101101000000111 7!
b11110100111101001101010100001011 7!
b11011011011001100101100111111 7!
b110010110011001111100000101000 7!
b11011001010101000100011110001111 7!
b10010010101110110011011001010001 7!
b1111100011110100110101101101011 7!
b11000101100011000100011000010010 7!
b1011011001101100000010111101000 7!
b111010000100100001101001110111 7!
b11100010011100010100001011110010 7!
b1100001001001100110110110101101 7!
b111111011001011101011101110100 7!
b11000111010100100100100000011011 7!
b1101100010110010000001010001011 7!
b11100000100101110000010110111111 7!
b10000000100010100100111100001100 7!
b11110111010110110110101101000100 7!
b111100100110111001100001111011 7!
b11000111100000110000001100011100 7!
b1101010010000000000100101100011 7!
b11111101110010010001111100110101 7!
b1000010111010000010110100101000 7!
b101111011111011010010100011000 7!
b10101100101110001110101100111 7!
b10100110001100100011111110011011 7!
b10110101001011111000010010011001 7!
b11001111101000010000011000100011 7!
b11010001000110110100100111110111 7!
b1111000000101100000101101101111 7!
b11000100100110110110100101011011 7!
b1111010010010111011110001011011 7!
b1010001001001011110111111011100 7!
b1001111011101110110000100010010 7!
b10110010111011010011011111111010 7!
b11011101011010110011010101110 7!
b1111110000110101001110010011001 7!
b10111010011010010000101000110001 7!
b10001111110100100010001010010101 7!
b1011100100011110111100110011 7!
b10100111010000100110100000010010 7!
b11100010000011111010000010001111 7!
b11101101010111001010100010110100 7!
b10010111000010100011001000111011 7!
b1101000001010011001100011110011 7!
b1000000110001011100111010111000 7!
b11010010010111100000010000100 7!
0?
xA
b1100100 Q!
b1 P!
b1100100 Z!
b1101001111 [!
1\!
